{
    "NYSE": {
        "timezone": "EST5EDT",
        "open": "09:30:00",
        "close": "16:00:00",
        "weekends": ["Sat", "Sun"],
        "holidays": [
            [2010, 1, 1],
            [2010, 1, 18],
            [2010, 2, 15],
            [2010, 4, 2],
            [2010, 5, 31],
            [2010, 7, 5],
            [2010, 9, 6],
            [2010, 11, 25],
            [2010, 11, 26],
            [2010, 12, 24],
            [2011, 1, 17],
            [2011, 2, 21],
            [2011, 4, 22],
            [2011, 5, 30],
            [2011, 7, 4],
            [2011, 9, 5],
            [2011, 11, 24],
            [2011, 11, 25],
            [2011, 12, 26],
            [2012, 1, 2],
            [2012, 1, 16],
            [2012, 2, 20],
            [2012, 4, 6],
            [2012, 5, 28],
            [2012, 7, 4], [2012, 7, 3],
            [2012, 9, 3],
            [2012, 11, 22], [2012, 11, 23],
            [2012, 12, 25], [2012, 12, 24],
            [2013, 1, 1],
            [2013, 1, 21],
            [2013, 2, 18],
            [2013, 3, 29],
            [2013, 5, 27],
            [2013, 7, 4], [2013, 7, 3],
            [2013, 9, 2],
            [2013, 11, 28], [2013, 11, 29],
            [2013, 12, 25], [2013, 12, 24],
            [2014, 1, 1],
            [2014, 1, 20],
            [2014, 2, 17],
            [2014, 4, 18],
            [2014, 5, 26],
            [2014, 7, 4], [2014, 7, 3],
            [2014, 9, 1],
            [2014, 11, 27], [2014, 11, 28],
            [2014, 12, 25], [2014, 12, 24]
        ]
    }
}
